ID	Name	Designator	Footprint	Quantity	Manufacturer Part	Manufacturer	Supplier	Supplier Part
1	LM7805	L7805	TO-220(TO-220-3)	1	L7809CV	STMicroelectronics	LCSC	undefined
2	Switch3x4x2	RESET	CONN-TH_2P-P5.08	1	Switch3x4x2	ReliaPro	LCSC	C26638
3	TIP122	Q2	TO-220-3_L10.0-W4.5-P2.54-L	1	TIP122	Slkor(SLKORMICRO Elec.)	LCSC	C458982
4	HDR-M-2.54_1x1 Header 	"5V,3.3V,GND,D1R,A0,D0,D2,D3,D5,RST,D8,GND1"	HDR-M-2.54_1X1	12			LCSC	C81276
5	15*10.5*21 Heat Sink	"U12,U2"	SINK-TH_L15.0-W10.5-H21.0	2	-	Made in China	LCSC	C4649
6	LED-TH-5mm_R	"LED1,LED2,LED3"	LED-TH_BD5.0_RED	3	333-2SURD/S530-A3	EVERLIGHT(台湾亿光)	LCSC	C87271
7	10u 25V Electrolytic Capacitor	C2	CAP-D8.0×F3.5	1				
8	100u 25V Electrolytic Capacitor	C3	CAP-D8.0×F3.5	1				
9	1k 1/4W Resistor	"R1,R2,R4,R5,R6"	R_AXIAL-0.4	5				
10	1N4007 Diode	D1	DO-41_BD2.4-L4.7-P8.70-D0.9-RD	1	1N4007	SEMTECH	LCSC	C106903
11	0.1u ceramic Capacitor	C1	RAD-0.1	1				
12	CONNector-TH_2P-P5.08	"VIN,OUT"	CONN-TH_2P-P5.08	2	PBT Connectors		LCSC	
13	Wemos D1	U1	WEMOS_D1_MINI_PRO	1		Wemos		
14	SPST toggle switch	SW	CONN-TH_2P-P5.08	1	SPST toggle switch			
